simulations/dump.vcd
$date
	Wed Mar  4 11:22:46 2026
$end
$version
	Icarus Verilog
$end
$timescale
	1ps
$end
$scope module core_top_tb $end
$var wire 1 ! WriteEn $end
$var wire 32 " MemStoreData [31:0] $end
$var wire 32 # MemLoadData [31:0] $end
$var wire 32 $ MemAddress [31:0] $end
$var wire 32 % InstrAddr [31:0] $end
$var wire 32 & Instr [31:0] $end
$var parameter 32 ' DATA_WIDTH $end
$var reg 1 ( clk $end
$var reg 1 ) rst_n $end
$scope module DataMemory_Inst $end
$var wire 1 ! WriteEn $end
$var wire 32 * MemStoreData [31:0] $end
$var wire 32 + MemAddress [31:0] $end
$var parameter 32 , DATA_WIDTH $end
$var reg 32 - MemLoadData [31:0] $end
$var integer 32 . k [31:0] $end
$upscope $end
$scope module InstructionMem_Inst $end
$var wire 32 / InstrAddr [31:0] $end
$var parameter 32 0 DATA_WIDTH $end
$var reg 32 1 Instr [31:0] $end
$var integer 32 2 k [31:0] $end
$upscope $end
$scope module uut $end
$var wire 32 3 Instr [31:0] $end
$var wire 32 4 MemLoadData [31:0] $end
$var wire 1 ( clk $end
$var wire 1 ) rst_n $end
$var wire 32 5 WriteResultEH [31:0] $end
$var wire 1 ! WriteEn $end
$var wire 32 6 UpperImmExtE [31:0] $end
$var wire 32 7 UpperImmExtD [31:0] $end
$var wire 1 8 UIControlC $end
$var wire 5 9 Rs2CH [4:0] $end
$var wire 5 : Rs2C [4:0] $end
$var wire 5 ; Rs1CH [4:0] $end
$var wire 5 < Rs1C [4:0] $end
$var wire 2 = ResultSrcE [1:0] $end
$var wire 2 > ResultSrcD [1:0] $end
$var wire 2 ? ResultSrcC [1:0] $end
$var wire 1 @ RegWriteEn $end
$var wire 1 A RegWriteEH $end
$var wire 1 B RegWriteE $end
$var wire 1 C RegWriteDH $end
$var wire 1 D RegWriteD $end
$var wire 1 E RegWriteC $end
$var wire 32 F RegWrData [31:0] $end
$var wire 5 G RegWrAddr [4:0] $end
$var wire 5 H RdEH [4:0] $end
$var wire 5 I RdE [4:0] $end
$var wire 5 J RdDH [4:0] $end
$var wire 5 K RdD [4:0] $end
$var wire 5 L RdC [4:0] $end
$var wire 32 M RData2C [31:0] $end
$var wire 32 N RData1C [31:0] $end
$var wire 32 O PCTargetA [31:0] $end
$var wire 1 P PCSrcA $end
$var wire 32 Q PCPlus4E [31:0] $end
$var wire 32 R PCPlus4D [31:0] $end
$var wire 32 S PCPlus4C [31:0] $end
$var wire 32 T PCPlus4B [31:0] $end
$var wire 32 U PCC [31:0] $end
$var wire 32 V PCB [31:0] $end
$var wire 32 W MemWriteDataD [31:0] $end
$var wire 1 X MemWriteD $end
$var wire 1 Y MemWriteC $end
$var wire 32 Z MemStoreData [31:0] $end
$var wire 32 [ MemReadDataE [31:0] $end
$var wire 32 \ MemAddress [31:0] $end
$var wire 1 ] LinkRegCtrlC $end
$var wire 1 ^ JumpC $end
$var wire 32 _ InstrB [31:0] $end
$var wire 32 ` InstrAddr [31:0] $end
$var wire 32 a ImmExtC [31:0] $end
$var wire 3 b Funct3D [2:0] $end
$var wire 3 c Funct3C [2:0] $end
$var wire 2 d ForwardBH [1:0] $end
$var wire 2 e ForwardAH [1:0] $end
$var wire 1 f BranchC $end
$var wire 2 g ALUSrcC [1:0] $end
$var wire 32 h ALUResultE [31:0] $end
$var wire 32 i ALUResultDH [31:0] $end
$var wire 32 j ALUResultD [31:0] $end
$var wire 2 k ALUOpC [1:0] $end
$var wire 5 l ALUControlC [4:0] $end
$var parameter 32 m DATA_WIDTH $end
$scope module decode_inst $end
$var wire 1 ( clk $end
$var wire 1 ) rst_n $end
$var wire 1 @ WrEnE $end
$var wire 32 n WrDataE [31:0] $end
$var wire 5 o WrAddrE [4:0] $end
$var wire 1 p UIControl $end
$var wire 5 q Rs2 [4:0] $end
$var wire 5 r Rs1 [4:0] $end
$var wire 2 s ResultSrc [1:0] $end
$var wire 1 t RegWrite $end
$var wire 5 u Rd [4:0] $end
$var wire 32 v PCPlus4B [31:0] $end
$var wire 32 w PCB [31:0] $end
$var wire 7 x Opcode [6:0] $end
$var wire 1 y MemWrite $end
$var wire 1 z LinkRegCtrl $end
$var wire 1 { Jump $end
$var wire 32 | InstrB [31:0] $end
$var wire 3 } ImmGenSrc [2:0] $end
$var wire 32 ~ ImmExt [31:0] $end
$var wire 7 !" Funct7 [6:0] $end
$var wire 3 "" Funct3 [2:0] $end
$var wire 1 #" Branch $end
$var wire 2 $" ALUSrc [1:0] $end
$var wire 2 %" ALUOp [1:0] $end
$var wire 5 &" ALUControl [4:0] $end
$var parameter 3 '" B_IMM $end
$var parameter 32 (" DATA_WIDTH $end
$var parameter 3 )" I_IMM $end
$var parameter 3 *" J_IMM $end
$var parameter 3 +" NO_IMM $end
$var parameter 7 ," OP_AUIPC $end
$var parameter 7 -" OP_BRANCH $end
$var parameter 7 ." OP_IMM $end
$var parameter 7 /" OP_JAL $end
$var parameter 7 0" OP_JALR $end
$var parameter 7 1" OP_LOAD $end
$var parameter 7 2" OP_LUI $end
$var parameter 7 3" OP_REG $end
$var parameter 7 4" OP_STORE $end
$var parameter 3 5" S_IMM $end
$var parameter 3 6" U_IMM $end
$var reg 5 7" ALUControlC [4:0] $end
$var reg 2 8" ALUOpC [1:0] $end
$var reg 2 9" ALUSrcC [1:0] $end
$var reg 1 f BranchC $end
$var reg 3 :" Funct3C [2:0] $end
$var reg 32 ;" ImmExtC [31:0] $end
$var reg 1 ^ JumpC $end
$var reg 1 ] LinkRegCtrlC $end
$var reg 1 Y MemWriteC $end
$var reg 32 <" PCC [31:0] $end
$var reg 32 =" PCPlus4C [31:0] $end
$var reg 32 >" RData1C [31:0] $end
$var reg 32 ?" RData2C [31:0] $end
$var reg 5 @" RdC [4:0] $end
$var reg 1 E RegWriteC $end
$var reg 2 A" ResultSrcC [1:0] $end
$var reg 5 B" Rs1C [4:0] $end
$var reg 5 C" Rs2C [4:0] $end
$var reg 1 8 UIControlC $end
$var integer 32 D" i [31:0] $end
$upscope $end
$scope module execute_inst $end
$var wire 5 E" ALUControlC [4:0] $end
$var wire 2 F" ALUOpC [1:0] $end
$var wire 2 G" ALUSrcC [1:0] $end
$var wire 1 f BranchC $end
$var wire 3 H" Funct3C [2:0] $end
$var wire 32 I" ImmExtC [31:0] $end
$var wire 1 ^ JumpC $end
$var wire 1 ] LinkRegCtrlC $end
$var wire 1 Y MemWriteC $end
$var wire 32 J" PCC [31:0] $end
$var wire 32 K" PCPlus4C [31:0] $end
$var wire 1 P PCSrcA $end
$var wire 32 L" RData1C [31:0] $end
$var wire 32 M" RData2C [31:0] $end
$var wire 5 N" RdC [4:0] $end
$var wire 1 E RegWriteC $end
$var wire 2 O" ResultSrcC [1:0] $end
$var wire 5 P" Rs1C [4:0] $end
$var wire 5 Q" Rs1CH [4:0] $end
$var wire 5 R" Rs2C [4:0] $end
$var wire 5 S" Rs2CH [4:0] $end
$var wire 1 8 UIControlC $end
$var wire 1 T" adder_enable $end
$var wire 1 U" carry_in $end
$var wire 1 ( clk $end
$var wire 1 ) rst_n $end
$var wire 32 V" adder_result [31:0] $end
$var wire 4 W" ZCNO [3:0] $end
$var wire 32 X" UpperImmExt [31:0] $end
$var wire 32 Y" PCTargetA [31:0] $end
$var wire 32 Z" PCImmSrc [31:0] $end
$var wire 32 [" ForwardWriteResultEH [31:0] $end
$var wire 32 \" ForwardSrcB [31:0] $end
$var wire 32 ]" ForwardSrcA [31:0] $end
$var wire 2 ^" ForwardBH [1:0] $end
$var wire 32 _" ForwardALUResultDH [31:0] $end
$var wire 2 `" ForwardAH [1:0] $end
$var wire 32 a" ALU_B [31:0] $end
$var wire 32 b" ALU_A [31:0] $end
$var parameter 3 c" ADD_SUB $end
$var parameter 3 d" AND $end
$var parameter 3 e" BEQ $end
$var parameter 3 f" BGE $end
$var parameter 3 g" BGEU $end
$var parameter 3 h" BLT $end
$var parameter 3 i" BLTU $end
$var parameter 3 j" BNE $end
$var parameter 32 k" DATA_WIDTH $end
$var parameter 3 l" OR $end
$var parameter 3 m" SLL $end
$var parameter 3 n" SLT $end
$var parameter 3 o" SLTU $end
$var parameter 3 p" SRL_A $end
$var parameter 3 q" XOR $end
$var reg 32 r" ALUResultD [31:0] $end
$var reg 3 s" Funct3D [2:0] $end
$var reg 1 X MemWriteD $end
$var reg 32 t" MemWriteDataD [31:0] $end
$var reg 32 u" PCPlus4D [31:0] $end
$var reg 5 v" RdD [4:0] $end
$var reg 1 D RegWriteD $end
$var reg 2 w" ResultSrcD [1:0] $end
$var reg 32 x" UpperImmExtD [31:0] $end
$var reg 1 y" branch_logic $end
$scope module ADDER_SUBTRACTOR $end
$var wire 32 z" A [31:0] $end
$var wire 32 {" B [31:0] $end
$var wire 32 |" B_ctrl [31:0] $end
$var wire 1 U" carry_in $end
$var wire 1 T" enable $end
$var wire 32 }" result [31:0] $end
$var wire 5 ~" carry_array [4:0] $end
$var wire 4 !# ZCNO [3:0] $end
$var parameter 32 "# BIT_WIDTH $end
$var parameter 32 ## DATA_WIDTH $end
$var parameter 32 $# MODULE_COUNT $end
$var parameter 33 %# MSB $end
$scope begin CLA_submodule[0] $end
$var parameter 2 &# i $end
$scope module CLA_instance $end
$var wire 8 '# A [7:0] $end
$var wire 8 (# B [7:0] $end
$var wire 1 )# carry_in $end
$var wire 1 T" enable $end
$var wire 1 *# carry_out $end
$var parameter 32 +# BIT_WIDTH $end
$var reg 9 ,# carry [8:0] $end
$var reg 8 -# g [7:0] $end
$var reg 8 .# p [7:0] $end
$var reg 8 /# sum [7:0] $end
$var integer 32 0# k [31:0] $end
$upscope $end
$upscope $end
$scope begin CLA_submodule[1] $end
$var parameter 2 1# i $end
$scope module CLA_instance $end
$var wire 8 2# A [7:0] $end
$var wire 8 3# B [7:0] $end
$var wire 1 4# carry_in $end
$var wire 1 T" enable $end
$var wire 1 5# carry_out $end
$var parameter 32 6# BIT_WIDTH $end
$var reg 9 7# carry [8:0] $end
$var reg 8 8# g [7:0] $end
$var reg 8 9# p [7:0] $end
$var reg 8 :# sum [7:0] $end
$var integer 32 ;# k [31:0] $end
$upscope $end
$upscope $end
$scope begin CLA_submodule[2] $end
$var parameter 3 <# i $end
$scope module CLA_instance $end
$var wire 8 =# A [7:0] $end
$var wire 8 ># B [7:0] $end
$var wire 1 ?# carry_in $end
$var wire 1 T" enable $end
$var wire 1 @# carry_out $end
$var parameter 32 A# BIT_WIDTH $end
$var reg 9 B# carry [8:0] $end
$var reg 8 C# g [7:0] $end
$var reg 8 D# p [7:0] $end
$var reg 8 E# sum [7:0] $end
$var integer 32 F# k [31:0] $end
$upscope $end
$upscope $end
$scope begin CLA_submodule[3] $end
$var parameter 3 G# i $end
$scope module CLA_instance $end
$var wire 8 H# A [7:0] $end
$var wire 8 I# B [7:0] $end
$var wire 1 J# carry_in $end
$var wire 1 T" enable $end
$var wire 1 K# carry_out $end
$var parameter 32 L# BIT_WIDTH $end
$var reg 9 M# carry [8:0] $end
$var reg 8 N# g [7:0] $end
$var reg 8 O# p [7:0] $end
$var reg 8 P# sum [7:0] $end
$var integer 32 Q# k [31:0] $end
$upscope $end
$upscope $end
$upscope $end
$upscope $end
$scope module fetch_inst $end
$var wire 32 R# Instr [31:0] $end
$var wire 32 S# InstrAddr [31:0] $end
$var wire 1 P PCSrcA $end
$var wire 32 T# PCTargetA [31:0] $end
$var wire 1 ( clk $end
$var wire 1 ) rst_n $end
$var wire 32 U# PCPlus4 [31:0] $end
$var parameter 32 V# DATA_WIDTH $end
$var reg 32 W# InstrB [31:0] $end
$var reg 32 X# PC [31:0] $end
$var reg 32 Y# PCB [31:0] $end
$var reg 32 Z# PCPlus4B [31:0] $end
$upscope $end
$scope module hazard_inst $end
$var wire 5 [# Rs1CH [4:0] $end
$var wire 5 \# Rs2CH [4:0] $end
$var wire 1 ) rst_n $end
$var wire 32 ]# WriteResultEH [31:0] $end
$var wire 1 A RegWriteEH $end
$var wire 1 C RegWriteDH $end
$var wire 5 ^# RdEH [4:0] $end
$var wire 5 _# RdDH [4:0] $end
$var wire 2 `# ForwardBH [1:0] $end
$var wire 2 a# ForwardAH [1:0] $end
$var wire 32 b# ALUResultDH [31:0] $end
$var parameter 32 c# DATA_WIDTH $end
$upscope $end
$scope module mem_cycle_inst $end
$var wire 32 d# ALUResultD [31:0] $end
$var wire 32 e# ALUResultDH [31:0] $end
$var wire 3 f# Funct3D [2:0] $end
$var wire 32 g# MemAddress [31:0] $end
$var wire 32 h# MemLoadData [31:0] $end
$var wire 1 X MemWriteD $end
$var wire 32 i# MemWriteDataD [31:0] $end
$var wire 32 j# PCPlus4D [31:0] $end
$var wire 5 k# RdD [4:0] $end
$var wire 5 l# RdDH [4:0] $end
$var wire 1 D RegWriteD $end
$var wire 1 C RegWriteDH $end
$var wire 2 m# ResultSrcD [1:0] $end
$var wire 32 n# UpperImmExtD [31:0] $end
$var wire 1 ! WriteEn $end
$var wire 1 ( clk $end
$var wire 1 ) rst_n $end
$var parameter 3 o# BYTE $end
$var parameter 3 p# BYTEU $end
$var parameter 32 q# DATA_WIDTH $end
$var parameter 3 r# HALF $end
$var parameter 3 s# HALFU $end
$var parameter 32 t# HALF_DATA $end
$var parameter 3 u# WORD $end
$var reg 32 v# ALUResultE [31:0] $end
$var reg 32 w# MemData [31:0] $end
$var reg 32 x# MemReadDataE [31:0] $end
$var reg 32 y# MemStoreData [31:0] $end
$var reg 32 z# PCPlus4E [31:0] $end
$var reg 5 {# RdE [4:0] $end
$var reg 1 B RegWriteE $end
$var reg 2 |# ResultSrcE [1:0] $end
$var reg 32 }# UpperImmExtE [31:0] $end
$upscope $end
$scope module writeback_inst $end
$var wire 32 ~# ALUResultE [31:0] $end
$var wire 32 !$ MemReadDataE [31:0] $end
$var wire 32 "$ PCPlus4E [31:0] $end
$var wire 5 #$ RdE [4:0] $end
$var wire 5 $$ RdEH [4:0] $end
$var wire 5 %$ RegWrAddr [4:0] $end
$var wire 1 B RegWriteE $end
$var wire 1 A RegWriteEH $end
$var wire 1 @ RegWriteEn $end
$var wire 2 &$ ResultSrcE [1:0] $end
$var wire 32 '$ UpperImmExtE [31:0] $end
$var wire 32 ($ WriteResultEH [31:0] $end
$var wire 1 ( clk $end
$var wire 1 ) rst_n $end
$var wire 32 )$ RegWrData [31:0] $end
$var parameter 32 *$ DATA_WIDTH $end
$upscope $end
$upscope $end
$upscope $end
$enddefinitions $end
$comment Show the parameter values. $end
$dumpall
b100000 *$
b10 u#
b10000 t#
b101 s#
b1 r#
b100000 q#
b100 p#
b0 o#
b100000 c#
b100000 V#
b1000 L#
b11 G#
b1000 A#
b10 <#
b1000 6#
b1 1#
b1000 +#
b0 &#
b11111 %#
b100 $#
b100000 ##
b1000 "#
b100 q"
b101 p"
b11 o"
b10 n"
b1 m"
b110 l"
b100000 k"
b1 j"
b110 i"
b100 h"
b111 g"
b101 f"
b0 e"
b111 d"
b0 c"
b100 6"
b10 5"
b100011 4"
b110011 3"
b110111 2"
b11 1"
b1100111 0"
b1101111 /"
b10011 ."
b1100011 -"
b10111 ,"
b0 +"
b101 *"
b1 )"
b100000 ("
b11 '"
b100000 m
b100000 0
b100000 ,
b100000 '
$end
#0
$dumpvars
b0 )$
b0 ($
b0 '$
b0 &$
b0 %$
b0 $$
b0 #$
b0 "$
b0 !$
b0 ~#
b0 }#
b0 |#
b0 {#
b0 z#
bx y#
b0 x#
b1100100 w#
b0 v#
b0 n#
b0 m#
b0 l#
b0 k#
b0 j#
b0 i#
b1100100 h#
b0 g#
b0 f#
b0 e#
b0 d#
b0 b#
b0 a#
b0 `#
b0 _#
b0 ^#
b0 ]#
b0 \#
b0 [#
b0 Z#
b0 Y#
b0 X#
b0 W#
b100 U#
b0 T#
b0 S#
b10000010000011 R#
b1000 Q#
b0 P#
b0 O#
b0 N#
b0 M#
0K#
0J#
b0 I#
b0 H#
b1000 F#
b0 E#
b0 D#
b0 C#
b0 B#
0@#
0?#
b0 >#
b0 =#
b1000 ;#
b0 :#
b0 9#
b0 8#
b0 7#
05#
04#
b0 3#
b0 2#
b1000 0#
b0 /#
b0 .#
b0 -#
b0 ,#
0*#
0)#
b0 (#
b0 '#
b1000 !#
b0 ~"
b0 }"
b0 |"
b0 {"
b0 z"
0y"
b0 x"
b0 w"
b0 v"
b0 u"
b0 t"
b0 s"
b0 r"
b0 b"
b0 a"
b0 `"
b0 _"
b0 ^"
b0 ]"
b0 \"
b0 ["
b0 Z"
b0 Y"
b0 X"
b1000 W"
b0 V"
0U"
1T"
b0 S"
b0 R"
b0 Q"
b0 P"
b0 O"
b0 N"
b0 M"
b0 L"
b0 K"
b0 J"
b0 I"
b0 H"
b0 G"
b0 F"
b0 E"
b100000 D"
b0 C"
b0 B"
b0 A"
b0 @"
b0 ?"
b0 >"
b0 ="
b0 <"
b0 ;"
b0 :"
b0 9"
b0 8"
b0 7"
b0 &"
b0 %"
b0 $"
0#"
b0 ""
b0 !"
b0 ~
b0 }
b0 |
0{
0z
0y
b0 x
b0 w
b0 v
b0 u
0t
b0 s
b0 r
b0 q
0p
b0 o
b0 n
b0 l
b0 k
b0 j
b0 i
b0 h
b0 g
0f
b0 e
b0 d
b0 c
b0 b
b0 a
b0 `
b0 _
0^
0]
b0 \
b0 [
bx Z
0Y
0X
b0 W
b0 V
b0 U
b0 T
b0 S
b0 R
b0 Q
0P
b0 O
b0 N
b0 M
b0 L
b0 K
b0 J
b0 I
b0 H
b0 G
b0 F
0E
0D
0C
0B
0A
0@
b0 ?
b0 >
b0 =
b0 <
b0 ;
b0 :
b0 9
08
b0 7
b0 6
b0 5
b1100100 4
b10000010000011 3
b1100100 2
b10000010000011 1
b0 /
b1100100 .
b1100100 -
b0 +
bx *
0)
1(
b10000010000011 &
b0 %
b0 $
b1100100 #
bx "
0!
$end
#5000
b100000 D"
0(
#6000
1)
#10000
b100000010000100000011 &
b100000010000100000011 1
b100000010000100000011 3
b100000010000100000011 R#
1t
b1 $"
b10 %"
b1 }
b1 s
b10 &"
b10 ""
b1 u
b11 x
b1 /
b1100100 [
b1100100 x#
b1100100 !$
b100 T
b100 v
b100 Z#
b10000010000011 _
b10000010000011 |
b10000010000011 W#
b1000 U#
b100 %
b100 `
b100 S#
b100 X#
1(
#15000
0(
#20000
b1000000010000110000011 &
b1000000010000110000011 1
b1000000010000110000011 3
b1000000010000110000011 R#
b1 ~
b10 u
b1 q
b10 /
b1000 T
b1000 v
b1000 Z#
b100 V
b100 w
b100 Y#
b100000010000100000011 _
b100000010000100000011 |
b100000010000100000011 W#
b1100 U#
b1000 %
b1000 `
b1000 S#
b1000 X#
b100 S
b100 ="
b100 K"
b10 c
b10 :"
b10 H"
b1 L
b1 @"
b1 N"
b10 l
b10 7"
b10 E"
b10 k
b10 8"
b10 F"
b1 g
b1 9"
b1 G"
b1 ?
b1 A"
b1 O"
1E
1(
#25000
0(
#30000
b1100000010001000000011 &
b1100000010001000000011 1
b1100000010001000000011 3
b1100000010001000000011 R#
b10 d
b10 ^"
b10 `#
b0 W"
b0 !#
b1 V"
b1 }"
b1 /#
b1000 0#
b1 .#
b1 (#
b1 |"
b10 ~
b100 Z"
b1 a"
b1 {"
b1 X"
b11 u
b10 q
b11 /
b10 b
b10 s"
b10 f#
b1 J
b1 _#
b1 l#
b1 K
b1 v"
b1 k#
b100 R
b100 u"
b100 j#
b1 >
b1 w"
b1 m#
1C
1D
b1000 S
b1000 ="
b1000 K"
b100 U
b100 <"
b100 J"
b1 9
b1 S"
b1 \#
b1 :
b1 C"
b1 R"
b10 L
b10 @"
b10 N"
b101 O
b101 Y"
b101 T#
b1 a
b1 ;"
b1 I"
b1100 T
b1100 v
b1100 Z#
b1000 V
b1000 w
b1000 Y#
b1000000010000110000011 _
b1000000010000110000011 |
b1000000010000110000011 W#
b10000 U#
b1100 %
b1100 `
b1100 S#
b1100 X#
1(
#35000
0(
#40000
b11111111111111111111111110011100 w#
b10000000101001010000011 &
b10000000101001010000011 1
b10000000101001010000011 3
b10000000101001010000011 R#
b11111111111111111111111110011100 #
b11111111111111111111111110011100 -
b11111111111111111111111110011100 4
b11111111111111111111111110011100 h#
b10 V"
b10 }"
b10 /#
b1000 0#
b10 .#
b10 (#
b11 ~
b10 |"
b100 u
b11 q
b100 /
b1000 Z"
b10 a"
b10 {"
b10 X"
b1 \"
b1100100 5
b1100100 ["
b1100100 ]#
b1100100 ($
b1100100 F
b1100100 n
b1100100 )$
b10000 T
b10000 v
b10000 Z#
b1100 V
b1100 w
b1100 Y#
b1100000010001000000011 _
b1100000010001000000011 |
b1100000010001000000011 W#
b10100 U#
b10000 %
b10000 `
b10000 S#
b10000 X#
b1100 S
b1100 ="
b1100 K"
b1000 U
b1000 <"
b1000 J"
b10 9
b10 S"
b10 \#
b10 :
b10 C"
b10 R"
b11 L
b11 @"
b11 N"
b1010 O
b1010 Y"
b1010 T#
b10 a
b10 ;"
b10 I"
b1 i
b1 _"
b1 b#
b1 e#
b1 $
b1 +
b1 \
b1 g#
b1 j
b1 r"
b1 d#
b1 7
b1 x"
b1 n#
b10 J
b10 _#
b10 l#
b10 K
b10 v"
b10 k#
b1000 R
b1000 u"
b1000 j#
b1 H
b1 ^#
b1 $$
b1 G
b1 o
b1 %$
b1 I
b1 {#
b1 #$
b1 =
b1 |#
b1 &$
1A
1@
1B
b100 Q
b100 z#
b100 "$
1(
#45000
0(
#50000
b110010 w#
b10100000100001100000011 &
b10100000100001100000011 1
b10100000100001100000011 3
b10100000100001100000011 R#
b110010 #
b110010 -
b110010 4
b110010 h#
b11 V"
b11 }"
b11 /#
b1000 0#
b11 .#
b11 (#
b11111111111111111111111110011100 5
b11111111111111111111111110011100 ["
b11111111111111111111111110011100 ]#
b11111111111111111111111110011100 ($
b11111111111111111111111110011100 F
b11111111111111111111111110011100 n
b11111111111111111111111110011100 )$
b11 |"
b100 ~
b10 \"
b1100 Z"
b11 a"
b11 {"
b11 X"
b101 &"
b101 ""
b101 u
b100 q
b101 /
b1 6
b1 }#
b1 '$
b10 H
b10 ^#
b10 $$
b10 G
b10 o
b10 %$
b10 I
b10 {#
b10 #$
b11111111111111111111111110011100 [
b11111111111111111111111110011100 x#
b11111111111111111111111110011100 !$
b1 h
b1 v#
b1 ~#
b1000 Q
b1000 z#
b1000 "$
b10 7
b10 x"
b10 n#
b1 W
b1 t"
b1 i#
b11 J
b11 _#
b11 l#
b11 K
b11 v"
b11 k#
b1100 R
b1100 u"
b1100 j#
b10 i
b10 _"
b10 b#
b10 e#
b10 $
b10 +
b10 \
b10 g#
b10 j
b10 r"
b10 d#
b10000 S
b10000 ="
b10000 K"
b1100 U
b1100 <"
b1100 J"
b11 9
b11 S"
b11 \#
b11 :
b11 C"
b11 R"
b100 L
b100 @"
b100 N"
b1111 O
b1111 Y"
b1111 T#
b11 a
b11 ;"
b11 I"
b10100 T
b10100 v
b10100 Z#
b10000 V
b10000 w
b10000 Y#
b10000000101001010000011 _
b10000000101001010000011 |
b10000000101001010000011 W#
b11000 U#
b10100 %
b10100 `
b10100 S#
b10100 X#
1(
#55000
0(
#60000
b11111111111111111111111111001110 w#
b11000000010001110000011 &
b11000000010001110000011 1
b11000000010001110000011 3
b11000000010001110000011 R#
b11111111111111111111111111001110 #
b11111111111111111111111111001110 -
b11111111111111111111111111001110 4
b11111111111111111111111111001110 h#
b100 V"
b100 }"
b100 /#
b1000 0#
b100 .#
b100 (#
b101 ~
b100 |"
b110010 5
b110010 ["
b110010 ]#
b110010 ($
b110010 F
b110010 n
b110010 )$
b100 &"
b100 ""
b110 u
b101 q
b110 /
b10000 Z"
b100 a"
b100 {"
b100 X"
b11 \"
b11000 T
b11000 v
b11000 Z#
b10100 V
b10100 w
b10100 Y#
b10100000100001100000011 _
b10100000100001100000011 |
b10100000100001100000011 W#
b11100 U#
b11000 %
b11000 `
b11000 S#
b11000 X#
b10100 S
b10100 ="
b10100 K"
b10000 U
b10000 <"
b10000 J"
b101 c
b101 :"
b101 H"
b100 9
b100 S"
b100 \#
b100 :
b100 C"
b100 R"
b101 L
b101 @"
b101 N"
b10100 O
b10100 Y"
b10100 T#
b100 a
b100 ;"
b100 I"
b101 l
b101 7"
b101 E"
b11 i
b11 _"
b11 b#
b11 e#
b11 $
b11 +
b11 \
b11 g#
b11 j
b11 r"
b11 d#
b11 7
b11 x"
b11 n#
b10 W
b10 t"
b10 i#
b100 J
b100 _#
b100 l#
b100 K
b100 v"
b100 k#
b10000 R
b10000 u"
b10000 j#
b10 6
b10 }#
b10 '$
b11 H
b11 ^#
b11 $$
b11 G
b11 o
b11 %$
b11 I
b11 {#
b11 #$
b110010 [
b110010 x#
b110010 !$
b10 h
b10 v#
b10 ~#
b1100 Q
b1100 z#
b1100 "$
1(
#65000
0(
#70000
b11100000010010000000011 &
b11100000010010000000011 1
b11100000010010000000011 3
b11100000010010000000011 R#
b11111111111111111111111111111111 #
b11111111111111111111111111111111 -
b11111111111111111111111111111111 4
b11111111111111111111111111111111 h#
b101 V"
b101 }"
b101 /#
b1000 0#
b101 .#
b101 (#
b11111111111111111111111111001110 5
b11111111111111111111111111001110 ["
b11111111111111111111111111001110 ]#
b11111111111111111111111111001110 ($
b11111111111111111111111111001110 F
b11111111111111111111111111001110 n
b11111111111111111111111111001110 )$
b101 |"
b110 ~
b1111111111111111 w#
b100 \"
b10100 Z"
b101 a"
b101 {"
b101 X"
b10 &"
b10 ""
b111 u
b110 q
b111 /
b11 6
b11 }#
b11 '$
b100 H
b100 ^#
b100 $$
b100 G
b100 o
b100 %$
b100 I
b100 {#
b100 #$
b11111111111111111111111111001110 [
b11111111111111111111111111001110 x#
b11111111111111111111111111001110 !$
b11 h
b11 v#
b11 ~#
b10000 Q
b10000 z#
b10000 "$
b101 b
b101 s"
b101 f#
b100 7
b100 x"
b100 n#
b11 W
b11 t"
b11 i#
b101 J
b101 _#
b101 l#
b101 K
b101 v"
b101 k#
b10100 R
b10100 u"
b10100 j#
b100 i
b100 _"
b100 b#
b100 e#
b100 $
b100 +
b100 \
b100 g#
b100 j
b100 r"
b100 d#
b11000 S
b11000 ="
b11000 K"
b10100 U
b10100 <"
b10100 J"
b100 c
b100 :"
b100 H"
b101 9
b101 S"
b101 \#
b101 :
b101 C"
b101 R"
b110 L
b110 @"
b110 N"
b11001 O
b11001 Y"
b11001 T#
b101 a
b101 ;"
b101 I"
b100 l
b100 7"
b100 E"
b11100 T
b11100 v
b11100 Z#
b11000 V
b11000 w
b11000 Y#
b11000000010001110000011 _
b11000000010001110000011 |
b11000000010001110000011 W#
b100000 U#
b11100 %
b11100 `
b11100 S#
b11100 X#
1(
#75000
0(
#80000
b11111111111111111111010010110111 &
b11111111111111111111010010110111 1
b11111111111111111111010010110111 3
b11111111111111111111010010110111 R#
b110 V"
b110 }"
b110 /#
b1000 0#
b110 .#
b110 (#
b111 ~
b110 |"
b1111111111111111 5
b1111111111111111 ["
b1111111111111111 ]#
b1111111111111111 ($
b1111111111111111 F
b1111111111111111 n
b1111111111111111 )$
b1000 u
b111 q
b1000 /
b11000 Z"
b110 a"
b110 {"
b110 X"
b101 \"
b11111111 w#
b100000 T
b100000 v
b100000 Z#
b11100 V
b11100 w
b11100 Y#
b11100000010010000000011 _
b11100000010010000000011 |
b11100000010010000000011 W#
b100100 U#
b100000 %
b100000 `
b100000 S#
b100000 X#
b11100 S
b11100 ="
b11100 K"
b11000 U
b11000 <"
b11000 J"
b10 c
b10 :"
b10 H"
b110 9
b110 S"
b110 \#
b110 :
b110 C"
b110 R"
b111 L
b111 @"
b111 N"
b11110 O
b11110 Y"
b11110 T#
b110 a
b110 ;"
b110 I"
b10 l
b10 7"
b10 E"
b101 i
b101 _"
b101 b#
b101 e#
b101 $
b101 +
b101 \
b101 g#
b101 j
b101 r"
b101 d#
b100 b
b100 s"
b100 f#
b101 7
b101 x"
b101 n#
b100 W
b100 t"
b100 i#
b110 J
b110 _#
b110 l#
b110 K
b110 v"
b110 k#
b11000 R
b11000 u"
b11000 j#
b100 6
b100 }#
b100 '$
b101 H
b101 ^#
b101 $$
b101 G
b101 o
b101 %$
b101 I
b101 {#
b101 #$
b1111111111111111 [
b1111111111111111 x#
b1111111111111111 !$
b100 h
b100 v#
b100 ~#
b10100 Q
b10100 z#
b10100 "$
1(
#85000
0(
